{
  "isotope":[
    "Hydrogen-1",
    "Hydrogen-2",
    "Hydrogen-3",
    "Hydrogen-4",
    "Hydrogen-5",
    "Hydrogen-6",
    "Hydrogen-7",
    "Helium-2",
    "Helium-3",
    "Helium-4",
    "Helium-5",
    "Helium-6",
    "Helium-7",
    "Helium-8",
    "Helium-9",
    "Helium-10",
    "Lithium-3",
    "Lithium-4",
    "Lithium-5",
    "Lithium-6",
    "Lithium-7",
    "Lithium-8",
    "Lithium-9",
    "Lithium-10",
    "Lithium-11",
    "Lithium-12",
    "Beryllium-5",
    "Beryllium-6",
    "Beryllium-7",
    "Beryllium-8",
    "Beryllium-9",
    "Beryllium-10",
    "Beryllium-11",
    "Beryllium-12",
    "Beryllium-13",
    "Beryllium-14",
    "Beryllium-15",
    "Beryllium-16",
    "Boron-6",
    "Boron-7",
    "Boron-8",
    "Boron-9",
    "Boron-10",
    "Boron-11",
    "Boron-12",
    "Boron-13",
    "Boron-14",
    "Boron-15",
    "Boron-16",
    "Boron-17",
    "Boron-18",
    "Boron-19",
    "Carbon-8",
    "Carbon-9",
    "Carbon-10",
    "Carbon-11",
    "Carbon-12",
    "Carbon-13",
    "Carbon-14",
    "Carbon-15",
    "Carbon-16",
    "Carbon-17",
    "Carbon-18",
    "Carbon-19",
    "Carbon-20",
    "Carbon-21",
    "Carbon-22",
    "Nitrogen-10",
    "Nitrogen-11",
    "Nitrogen-12",
    "Nitrogen-13",
    "Nitrogen-14",
    "Nitrogen-15",
    "Nitrogen-16",
    "Nitrogen-17",
    "Nitrogen-18",
    "Nitrogen-19",
    "Nitrogen-20",
    "Nitrogen-21",
    "Nitrogen-22",
    "Nitrogen-23",
    "Nitrogen-24",
    "Nitrogen-25",
    "Oxygen-12",
    "Oxygen-13",
    "Oxygen-14",
    "Oxygen-15",
    "Oxygen-16",
    "Oxygen-17",
    "Oxygen-18",
    "Oxygen-19",
    "Oxygen-20",
    "Oxygen-21",
    "Oxygen-22",
    "Oxygen-23",
    "Oxygen-24",
    "Oxygen-25",
    "Oxygen-26",
    "Oxygen-27",
    "Oxygen-28",
    "Fluorine-14",
    "Fluorine-15",
    "Fluorine-16",
    "Fluorine-17",
    "Fluorine-18",
    "Fluorine-19",
    "Fluorine-20",
    "Fluorine-21",
    "Fluorine-22",
    "Fluorine-23",
    "Fluorine-24",
    "Fluorine-25",
    "Fluorine-26",
    "Fluorine-27",
    "Fluorine-28",
    "Fluorine-29",
    "Fluorine-30",
    "Fluorine-31",
    "Neon-16",
    "Neon-17",
    "Neon-18",
    "Neon-19",
    "Neon-20",
    "Neon-21",
    "Neon-22",
    "Neon-23",
    "Neon-24",
    "Neon-25",
    "Neon-26",
    "Neon-27",
    "Neon-28",
    "Neon-29",
    "Neon-30",
    "Neon-31",
    "Neon-32",
    "Neon-33",
    "Neon-34",
    "Sodium-18",
    "Sodium-19",
    "Sodium-20",
    "Sodium-21",
    "Sodium-22",
    "Sodium-23",
    "Sodium-24",
    "Sodium-25",
    "Sodium-26",
    "Sodium-27",
    "Sodium-28",
    "Sodium-29",
    "Sodium-30",
    "Sodium-31",
    "Sodium-32",
    "Sodium-33",
    "Sodium-34",
    "Sodium-35",
    "Sodium-36",
    "Sodium-37",
    "Magnesium-19",
    "Magnesium-20",
    "Magnesium-21",
    "Magnesium-22",
    "Magnesium-23",
    "Magnesium-24",
    "Magnesium-25",
    "Magnesium-26",
    "Magnesium-27",
    "Magnesium-28",
    "Magnesium-29",
    "Magnesium-30",
    "Magnesium-31",
    "Magnesium-32",
    "Magnesium-33",
    "Magnesium-34",
    "Magnesium-35",
    "Magnesium-36",
    "Magnesium-37",
    "Magnesium-38",
    "Magnesium-39",
    "Magnesium-40",
    "Aluminum-21",
    "Aluminum-22",
    "Aluminum-23",
    "Aluminum-24",
    "Aluminum-25",
    "Aluminum-26",
    "Aluminum-27",
    "Aluminum-28",
    "Aluminum-29",
    "Aluminum-30",
    "Aluminum-31",
    "Aluminum-32",
    "Aluminum-33",
    "Aluminum-34",
    "Aluminum-35",
    "Aluminum-36",
    "Aluminum-37",
    "Aluminum-38",
    "Aluminum-39",
    "Aluminum-40",
    "Aluminum-41",
    "Aluminum-42",
    "Silicon-22",
    "Silicon-23",
    "Silicon-24",
    "Silicon-25",
    "Silicon-26",
    "Silicon-27",
    "Silicon-28",
    "Silicon-29",
    "Silicon-30",
    "Silicon-31",
    "Silicon-32",
    "Silicon-33",
    "Silicon-34",
    "Silicon-35",
    "Silicon-36",
    "Silicon-37",
    "Silicon-38",
    "Silicon-39",
    "Silicon-40",
    "Silicon-41",
    "Silicon-42",
    "Silicon-43",
    "Silicon-44",
    "Phosphorus-24",
    "Phosphorus-25",
    "Phosphorus-26",
    "Phosphorus-27",
    "Phosphorus-28",
    "Phosphorus-29",
    "Phosphorus-30",
    "Phosphorus-31",
    "Phosphorus-32",
    "Phosphorus-33",
    "Phosphorus-34",
    "Phosphorus-35",
    "Phosphorus-36",
    "Phosphorus-37",
    "Phosphorus-38",
    "Phosphorus-39",
    "Phosphorus-40",
    "Phosphorus-41",
    "Phosphorus-42",
    "Phosphorus-43",
    "Phosphorus-44",
    "Phosphorus-45",
    "Phosphorus-46",
    "Sulfur-26",
    "Sulfur-27",
    "Sulfur-28",
    "Sulfur-29",
    "Sulfur-30",
    "Sulfur-31",
    "Sulfur-32",
    "Sulfur-33",
    "Sulfur-34",
    "Sulfur-35",
    "Sulfur-36",
    "Sulfur-37",
    "Sulfur-38",
    "Sulfur-39",
    "Sulfur-40",
    "Sulfur-41",
    "Sulfur-42",
    "Sulfur-43",
    "Sulfur-44",
    "Sulfur-45",
    "Sulfur-46",
    "Sulfur-47",
    "Sulfur-48",
    "Sulfur-49",
    "Chlorine-28",
    "Chlorine-29",
    "Chlorine-30",
    "Chlorine-31",
    "Chlorine-32",
    "Chlorine-33",
    "Chlorine-34",
    "Chlorine-35",
    "Chlorine-36",
    "Chlorine-37",
    "Chlorine-38",
    "Chlorine-39",
    "Chlorine-40",
    "Chlorine-41",
    "Chlorine-42",
    "Chlorine-43",
    "Chlorine-44",
    "Chlorine-45",
    "Chlorine-46",
    "Chlorine-47",
    "Chlorine-48",
    "Chlorine-49",
    "Chlorine-50",
    "Chlorine-51",
    "Argon-30",
    "Argon-31",
    "Argon-32",
    "Argon-33",
    "Argon-34",
    "Argon-35",
    "Argon-36",
    "Argon-37",
    "Argon-38",
    "Argon-39",
    "Argon-40",
    "Argon-41",
    "Argon-42",
    "Argon-43",
    "Argon-44",
    "Argon-45",
    "Argon-46",
    "Argon-47",
    "Argon-48",
    "Argon-49",
    "Argon-50",
    "Argon-51",
    "Argon-52",
    "Argon-53",
    "Potassium-32",
    "Potassium-33",
    "Potassium-34",
    "Potassium-35",
    "Potassium-36",
    "Potassium-37",
    "Potassium-38",
    "Potassium-39",
    "Potassium-40",
    "Potassium-41",
    "Potassium-42",
    "Potassium-43",
    "Potassium-44",
    "Potassium-45",
    "Potassium-46",
    "Potassium-47",
    "Potassium-48",
    "Potassium-49",
    "Potassium-50",
    "Potassium-51",
    "Potassium-52",
    "Potassium-53",
    "Potassium-54",
    "Potassium-55",
    "Calcium-34",
    "Calcium-35",
    "Calcium-36",
    "Calcium-37",
    "Calcium-38",
    "Calcium-39",
    "Calcium-40",
    "Calcium-41",
    "Calcium-42",
    "Calcium-43",
    "Calcium-44",
    "Calcium-45",
    "Calcium-46",
    "Calcium-47",
    "Calcium-48",
    "Calcium-49",
    "Calcium-50",
    "Calcium-51",
    "Calcium-52",
    "Calcium-53",
    "Calcium-54",
    "Calcium-55",
    "Calcium-56",
    "Calcium-57",
    "Scandium-36",
    "Scandium-37",
    "Scandium-38",
    "Scandium-39",
    "Scandium-40",
    "Scandium-41",
    "Scandium-42",
    "Scandium-43",
    "Scandium-44",
    "Scandium-45",
    "Scandium-46",
    "Scandium-47",
    "Scandium-48",
    "Scandium-49",
    "Scandium-50",
    "Scandium-51",
    "Scandium-52",
    "Scandium-53",
    "Scandium-54",
    "Scandium-55",
    "Scandium-56",
    "Scandium-57",
    "Scandium-58",
    "Scandium-59",
    "Scandium-60",
    "Titanium-38",
    "Titanium-39",
    "Titanium-40",
    "Titanium-41",
    "Titanium-42",
    "Titanium-43",
    "Titanium-44",
    "Titanium-45",
    "Titanium-46",
    "Titanium-47",
    "Titanium-48",
    "Titanium-49",
    "Titanium-50",
    "Titanium-51",
    "Titanium-52",
    "Titanium-53",
    "Titanium-54",
    "Titanium-55",
    "Titanium-56",
    "Titanium-57",
    "Titanium-58",
    "Titanium-59",
    "Titanium-60",
    "Titanium-61",
    "Titanium-62",
    "Titanium-63",
    "Vanadium-40",
    "Vanadium-41",
    "Vanadium-42",
    "Vanadium-43",
    "Vanadium-44",
    "Vanadium-45",
    "Vanadium-46",
    "Vanadium-47",
    "Vanadium-48",
    "Vanadium-49",
    "Vanadium-50",
    "Vanadium-51",
    "Vanadium-52",
    "Vanadium-53",
    "Vanadium-54",
    "Vanadium-55",
    "Vanadium-56",
    "Vanadium-57",
    "Vanadium-58",
    "Vanadium-59",
    "Vanadium-60",
    "Vanadium-61",
    "Vanadium-62",
    "Vanadium-63",
    "Vanadium-64",
    "Vanadium-65",
    "Chromium-42",
    "Chromium-43",
    "Chromium-44",
    "Chromium-45",
    "Chromium-46",
    "Chromium-47",
    "Chromium-48",
    "Chromium-49",
    "Chromium-50",
    "Chromium-51",
    "Chromium-52",
    "Chromium-53",
    "Chromium-54",
    "Chromium-55",
    "Chromium-56",
    "Chromium-57",
    "Chromium-58",
    "Chromium-59",
    "Chromium-60",
    "Chromium-61",
    "Chromium-62",
    "Chromium-63",
    "Chromium-64",
    "Chromium-65",
    "Chromium-66",
    "Chromium-67",
    "Manganese-44",
    "Manganese-45",
    "Manganese-46",
    "Manganese-47",
    "Manganese-48",
    "Manganese-49",
    "Manganese-50",
    "Manganese-51",
    "Manganese-52",
    "Manganese-53",
    "Manganese-54",
    "Manganese-55",
    "Manganese-56",
    "Manganese-57",
    "Manganese-58",
    "Manganese-59",
    "Manganese-60",
    "Manganese-61",
    "Manganese-62",
    "Manganese-63",
    "Manganese-64",
    "Manganese-65",
    "Manganese-66",
    "Manganese-67",
    "Manganese-68",
    "Manganese-69",
    "Iron-45",
    "Iron-46",
    "Iron-47",
    "Iron-48",
    "Iron-49",
    "Iron-50",
    "Iron-51",
    "Iron-52",
    "Iron-53",
    "Iron-54",
    "Iron-55",
    "Iron-56",
    "Iron-57",
    "Iron-58",
    "Iron-59",
    "Iron-60",
    "Iron-61",
    "Iron-62",
    "Iron-63",
    "Iron-64",
    "Iron-65",
    "Iron-66",
    "Iron-67",
    "Iron-68",
    "Iron-69",
    "Iron-70",
    "Iron-71",
    "Iron-72",
    "Cobalt-47",
    "Cobalt-48",
    "Cobalt-49",
    "Cobalt-50",
    "Cobalt-51",
    "Cobalt-52",
    "Cobalt-53",
    "Cobalt-54",
    "Cobalt-55",
    "Cobalt-56",
    "Cobalt-57",
    "Cobalt-58",
    "Cobalt-59",
    "Cobalt-60",
    "Cobalt-61",
    "Cobalt-62",
    "Cobalt-63",
    "Cobalt-64",
    "Cobalt-65",
    "Cobalt-66",
    "Cobalt-67",
    "Cobalt-68",
    "Cobalt-69",
    "Cobalt-70",
    "Cobalt-71",
    "Cobalt-72",
    "Cobalt-73",
    "Cobalt-74",
    "Cobalt-75",
    "Nickel-48",
    "Nickel-49",
    "Nickel-50",
    "Nickel-51",
    "Nickel-52",
    "Nickel-53",
    "Nickel-54",
    "Nickel-55",
    "Nickel-56",
    "Nickel-57",
    "Nickel-58",
    "Nickel-59",
    "Nickel-60",
    "Nickel-61",
    "Nickel-62",
    "Nickel-63",
    "Nickel-64",
    "Nickel-65",
    "Nickel-66",
    "Nickel-67",
    "Nickel-68",
    "Nickel-69",
    "Nickel-70",
    "Nickel-71",
    "Nickel-72",
    "Nickel-73",
    "Nickel-74",
    "Nickel-75",
    "Nickel-76",
    "Nickel-77",
    "Nickel-78",
    "Copper-52",
    "Copper-53",
    "Copper-54",
    "Copper-55",
    "Copper-56",
    "Copper-57",
    "Copper-58",
    "Copper-59",
    "Copper-60",
    "Copper-61",
    "Copper-62",
    "Copper-63",
    "Copper-64",
    "Copper-65",
    "Copper-66",
    "Copper-67",
    "Copper-68",
    "Copper-69",
    "Copper-70",
    "Copper-71",
    "Copper-72",
    "Copper-73",
    "Copper-74",
    "Copper-75",
    "Copper-76",
    "Copper-77",
    "Copper-78",
    "Copper-79",
    "Copper-80",
    "Zinc-54",
    "Zinc-55",
    "Zinc-56",
    "Zinc-57",
    "Zinc-58",
    "Zinc-59",
    "Zinc-60",
    "Zinc-61",
    "Zinc-62",
    "Zinc-63",
    "Zinc-64",
    "Zinc-65",
    "Zinc-66",
    "Zinc-67",
    "Zinc-68",
    "Zinc-69",
    "Zinc-70",
    "Zinc-71",
    "Zinc-72",
    "Zinc-73",
    "Zinc-74",
    "Zinc-75",
    "Zinc-76",
    "Zinc-77",
    "Zinc-78",
    "Zinc-79",
    "Zinc-80",
    "Zinc-81",
    "Zinc-82",
    "Zinc-83",
    "Gallium-56",
    "Gallium-57",
    "Gallium-58",
    "Gallium-59",
    "Gallium-60",
    "Gallium-61",
    "Gallium-62",
    "Gallium-63",
    "Gallium-64",
    "Gallium-65",
    "Gallium-66",
    "Gallium-67",
    "Gallium-68",
    "Gallium-69",
    "Gallium-70",
    "Gallium-71",
    "Gallium-72",
    "Gallium-73",
    "Gallium-74",
    "Gallium-75",
    "Gallium-76",
    "Gallium-77",
    "Gallium-78",
    "Gallium-79",
    "Gallium-80",
    "Gallium-81",
    "Gallium-82",
    "Gallium-83",
    "Gallium-84",
    "Gallium-85",
    "Gallium-86",
    "Germanium-58",
    "Germanium-59",
    "Germanium-60",
    "Germanium-61",
    "Germanium-62",
    "Germanium-63",
    "Germanium-64",
    "Germanium-65",
    "Germanium-66",
    "Germanium-67",
    "Germanium-68",
    "Germanium-69",
    "Germanium-70",
    "Germanium-71",
    "Germanium-72",
    "Germanium-73",
    "Germanium-74",
    "Germanium-75",
    "Germanium-76",
    "Germanium-77",
    "Germanium-78",
    "Germanium-79",
    "Germanium-80",
    "Germanium-81",
    "Germanium-82",
    "Germanium-83",
    "Germanium-84",
    "Germanium-85",
    "Germanium-86",
    "Germanium-87",
    "Germanium-88",
    "Germanium-89",
    "Arsenic-60",
    "Arsenic-61",
    "Arsenic-62",
    "Arsenic-63",
    "Arsenic-64",
    "Arsenic-65",
    "Arsenic-66",
    "Arsenic-67",
    "Arsenic-68",
    "Arsenic-69",
    "Arsenic-70",
    "Arsenic-71",
    "Arsenic-72",
    "Arsenic-73",
    "Arsenic-74",
    "Arsenic-75",
    "Arsenic-76",
    "Arsenic-77",
    "Arsenic-78",
    "Arsenic-79",
    "Arsenic-80",
    "Arsenic-81",
    "Arsenic-82",
    "Arsenic-83",
    "Arsenic-84",
    "Arsenic-85",
    "Arsenic-86",
    "Arsenic-87",
    "Arsenic-88",
    "Arsenic-89",
    "Arsenic-90",
    "Arsenic-91",
    "Arsenic-92",
    "Selenium-65",
    "Selenium-66",
    "Selenium-67",
    "Selenium-68",
    "Selenium-69",
    "Selenium-70",
    "Selenium-71",
    "Selenium-72",
    "Selenium-73",
    "Selenium-74",
    "Selenium-75",
    "Selenium-76",
    "Selenium-77",
    "Selenium-78",
    "Selenium-79",
    "Selenium-80",
    "Selenium-81",
    "Selenium-82",
    "Selenium-83",
    "Selenium-84",
    "Selenium-85",
    "Selenium-86",
    "Selenium-87",
    "Selenium-88",
    "Selenium-89",
    "Selenium-90",
    "Selenium-91",
    "Selenium-92",
    "Selenium-93",
    "Selenium-94",
    "Bromine-67",
    "Bromine-68",
    "Bromine-69",
    "Bromine-70",
    "Bromine-71",
    "Bromine-72",
    "Bromine-73",
    "Bromine-74",
    "Bromine-75",
    "Bromine-76",
    "Bromine-77",
    "Bromine-78",
    "Bromine-79",
    "Bromine-80",
    "Bromine-81",
    "Bromine-82",
    "Bromine-83",
    "Bromine-84",
    "Bromine-85",
    "Bromine-86",
    "Bromine-87",
    "Bromine-88",
    "Bromine-89",
    "Bromine-90",
    "Bromine-91",
    "Bromine-92",
    "Bromine-93",
    "Bromine-94",
    "Bromine-95",
    "Bromine-96",
    "Bromine-97",
    "Krypton-69",
    "Krypton-70",
    "Krypton-71",
    "Krypton-72",
    "Krypton-73",
    "Krypton-74",
    "Krypton-75",
    "Krypton-76",
    "Krypton-77",
    "Krypton-78",
    "Krypton-79",
    "Krypton-80",
    "Krypton-81",
    "Krypton-82",
    "Krypton-83",
    "Krypton-84",
    "Krypton-85",
    "Krypton-86",
    "Krypton-87",
    "Krypton-88",
    "Krypton-89",
    "Krypton-90",
    "Krypton-91",
    "Krypton-92",
    "Krypton-93",
    "Krypton-94",
    "Krypton-95",
    "Krypton-96",
    "Krypton-97",
    "Krypton-98",
    "Krypton-99",
    "Krypton-100",
    "Rubidium-71",
    "Rubidium-72",
    "Rubidium-73",
    "Rubidium-74",
    "Rubidium-75",
    "Rubidium-76",
    "Rubidium-77",
    "Rubidium-78",
    "Rubidium-79",
    "Rubidium-80",
    "Rubidium-81",
    "Rubidium-82",
    "Rubidium-83",
    "Rubidium-84",
    "Rubidium-85",
    "Rubidium-86",
    "Rubidium-87",
    "Rubidium-88",
    "Rubidium-89",
    "Rubidium-90",
    "Rubidium-91",
    "Rubidium-92",
    "Rubidium-93",
    "Rubidium-94",
    "Rubidium-95",
    "Rubidium-96",
    "Rubidium-97",
    "Rubidium-98",
    "Rubidium-99",
    "Rubidium-100",
    "Rubidium-101",
    "Rubidium-102",
    "Strontium-73",
    "Strontium-74",
    "Strontium-75",
    "Strontium-76",
    "Strontium-77",
    "Strontium-78",
    "Strontium-79",
    "Strontium-80",
    "Strontium-81",
    "Strontium-82",
    "Strontium-83",
    "Strontium-84",
    "Strontium-85",
    "Strontium-86",
    "Strontium-87",
    "Strontium-88",
    "Strontium-89",
    "Strontium-90",
    "Strontium-91",
    "Strontium-92",
    "Strontium-93",
    "Strontium-94",
    "Strontium-95",
    "Strontium-96",
    "Strontium-97",
    "Strontium-98",
    "Strontium-99",
    "Strontium-100",
    "Strontium-101",
    "Strontium-102",
    "Strontium-103",
    "Strontium-104",
    "Strontium-105",
    "Yttrium-76",
    "Yttrium-77",
    "Yttrium-78",
    "Yttrium-79",
    "Yttrium-80",
    "Yttrium-81",
    "Yttrium-82",
    "Yttrium-83",
    "Yttrium-84",
    "Yttrium-85",
    "Yttrium-86",
    "Yttrium-87",
    "Yttrium-88",
    "Yttrium-89",
    "Yttrium-90",
    "Yttrium-91",
    "Yttrium-92",
    "Yttrium-93",
    "Yttrium-94",
    "Yttrium-95",
    "Yttrium-96",
    "Yttrium-97",
    "Yttrium-98",
    "Yttrium-99",
    "Yttrium-100",
    "Yttrium-101",
    "Yttrium-102",
    "Yttrium-103",
    "Yttrium-104",
    "Yttrium-105",
    "Yttrium-106",
    "Yttrium-107",
    "Yttrium-108",
    "Zirconium-78",
    "Zirconium-79",
    "Zirconium-80",
    "Zirconium-81",
    "Zirconium-82",
    "Zirconium-83",
    "Zirconium-84",
    "Zirconium-85",
    "Zirconium-86",
    "Zirconium-87",
    "Zirconium-88",
    "Zirconium-89",
    "Zirconium-90",
    "Zirconium-91",
    "Zirconium-92",
    "Zirconium-93",
    "Zirconium-94",
    "Zirconium-95",
    "Zirconium-96",
    "Zirconium-97",
    "Zirconium-98",
    "Zirconium-99",
    "Zirconium-100",
    "Zirconium-101",
    "Zirconium-102",
    "Zirconium-103",
    "Zirconium-104",
    "Zirconium-105",
    "Zirconium-106",
    "Zirconium-107",
    "Zirconium-108",
    "Zirconium-109",
    "Zirconium-110",
    "Niobium-81",
    "Niobium-82",
    "Niobium-83",
    "Niobium-84",
    "Niobium-85",
    "Niobium-86",
    "Niobium-87",
    "Niobium-88",
    "Niobium-89",
    "Niobium-90",
    "Niobium-91",
    "Niobium-92",
    "Niobium-93",
    "Niobium-94",
    "Niobium-95",
    "Niobium-96",
    "Niobium-97",
    "Niobium-98",
    "Niobium-99",
    "Niobium-100",
    "Niobium-101",
    "Niobium-102",
    "Niobium-103",
    "Niobium-104",
    "Niobium-105",
    "Niobium-106",
    "Niobium-107",
    "Niobium-108",
    "Niobium-109",
    "Niobium-110",
    "Niobium-111",
    "Niobium-112",
    "Niobium-113",
    "Molybdenum-83",
    "Molybdenum-84",
    "Molybdenum-85",
    "Molybdenum-86",
    "Molybdenum-87",
    "Molybdenum-88",
    "Molybdenum-89",
    "Molybdenum-90",
    "Molybdenum-91",
    "Molybdenum-92",
    "Molybdenum-93",
    "Molybdenum-94",
    "Molybdenum-95",
    "Molybdenum-96",
    "Molybdenum-97",
    "Molybdenum-98",
    "Molybdenum-99",
    "Molybdenum-100",
    "Molybdenum-101",
    "Molybdenum-102",
    "Molybdenum-103",
    "Molybdenum-104",
    "Molybdenum-105",
    "Molybdenum-106",
    "Molybdenum-107",
    "Molybdenum-108",
    "Molybdenum-109",
    "Molybdenum-110",
    "Molybdenum-111",
    "Molybdenum-112",
    "Molybdenum-113",
    "Molybdenum-114",
    "Molybdenum-115",
    "Technetium-85",
    "Technetium-86",
    "Technetium-87",
    "Technetium-88",
    "Technetium-89",
    "Technetium-90",
    "Technetium-91",
    "Technetium-92",
    "Technetium-93",
    "Technetium-94",
    "Technetium-95",
    "Technetium-96",
    "Technetium-97",
    "Technetium-98",
    "Technetium-99",
    "Technetium-100",
    "Technetium-101",
    "Technetium-102",
    "Technetium-103",
    "Technetium-104",
    "Technetium-105",
    "Technetium-106",
    "Technetium-107",
    "Technetium-108",
    "Technetium-109",
    "Technetium-110",
    "Technetium-111",
    "Technetium-112",
    "Technetium-113",
    "Technetium-114",
    "Technetium-115",
    "Technetium-116",
    "Technetium-117",
    "Technetium-118",
    "Ruthenium-87",
    "Ruthenium-88",
    "Ruthenium-89",
    "Ruthenium-90",
    "Ruthenium-91",
    "Ruthenium-92",
    "Ruthenium-93",
    "Ruthenium-94",
    "Ruthenium-95",
    "Ruthenium-96",
    "Ruthenium-97",
    "Ruthenium-98",
    "Ruthenium-99",
    "Ruthenium-100",
    "Ruthenium-101",
    "Ruthenium-102",
    "Ruthenium-103",
    "Ruthenium-104",
    "Ruthenium-105",
    "Ruthenium-106",
    "Ruthenium-107",
    "Ruthenium-108",
    "Ruthenium-109",
    "Ruthenium-110",
    "Ruthenium-111",
    "Ruthenium-112",
    "Ruthenium-113",
    "Ruthenium-114",
    "Ruthenium-115",
    "Ruthenium-116",
    "Ruthenium-117",
    "Ruthenium-118",
    "Ruthenium-119",
    "Ruthenium-120",
    "Rhodium-89",
    "Rhodium-90",
    "Rhodium-91",
    "Rhodium-92",
    "Rhodium-93",
    "Rhodium-94",
    "Rhodium-95",
    "Rhodium-96",
    "Rhodium-97",
    "Rhodium-98",
    "Rhodium-99",
    "Rhodium-100",
    "Rhodium-101",
    "Rhodium-102",
    "Rhodium-103",
    "Rhodium-104",
    "Rhodium-105",
    "Rhodium-106",
    "Rhodium-107",
    "Rhodium-108",
    "Rhodium-109",
    "Rhodium-110",
    "Rhodium-111",
    "Rhodium-112",
    "Rhodium-113",
    "Rhodium-114",
    "Rhodium-115",
    "Rhodium-116",
    "Rhodium-117",
    "Rhodium-118",
    "Rhodium-119",
    "Rhodium-120",
    "Rhodium-121",
    "Rhodium-122",
    "Palladium-91",
    "Palladium-92",
    "Palladium-93",
    "Palladium-94",
    "Palladium-95",
    "Palladium-96",
    "Palladium-97",
    "Palladium-98",
    "Palladium-99",
    "Palladium-100",
    "Palladium-101",
    "Palladium-102",
    "Palladium-103",
    "Palladium-104",
    "Palladium-105",
    "Palladium-106",
    "Palladium-107",
    "Palladium-108",
    "Palladium-109",
    "Palladium-110",
    "Palladium-111",
    "Palladium-112",
    "Palladium-113",
    "Palladium-114",
    "Palladium-115",
    "Palladium-116",
    "Palladium-117",
    "Palladium-118",
    "Palladium-119",
    "Palladium-120",
    "Palladium-121",
    "Palladium-122",
    "Palladium-123",
    "Palladium-124",
    "Silver-93",
    "Silver-94",
    "Silver-95",
    "Silver-96",
    "Silver-97",
    "Silver-98",
    "Silver-99",
    "Silver-100",
    "Silver-101",
    "Silver-102",
    "Silver-103",
    "Silver-104",
    "Silver-105",
    "Silver-106",
    "Silver-107",
    "Silver-108",
    "Silver-109",
    "Silver-110",
    "Silver-111",
    "Silver-112",
    "Silver-113",
    "Silver-114",
    "Silver-115",
    "Silver-116",
    "Silver-117",
    "Silver-118",
    "Silver-119",
    "Silver-120",
    "Silver-121",
    "Silver-122",
    "Silver-123",
    "Silver-124",
    "Silver-125",
    "Silver-126",
    "Silver-127",
    "Silver-128",
    "Silver-129",
    "Silver-130",
    "Cadmium-95",
    "Cadmium-96",
    "Cadmium-97",
    "Cadmium-98",
    "Cadmium-99",
    "Cadmium-100",
    "Cadmium-101",
    "Cadmium-102",
    "Cadmium-103",
    "Cadmium-104",
    "Cadmium-105",
    "Cadmium-106",
    "Cadmium-107",
    "Cadmium-108",
    "Cadmium-109",
    "Cadmium-110",
    "Cadmium-111",
    "Cadmium-112",
    "Cadmium-113",
    "Cadmium-114",
    "Cadmium-115",
    "Cadmium-116",
    "Cadmium-117",
    "Cadmium-118",
    "Cadmium-119",
    "Cadmium-120",
    "Cadmium-121",
    "Cadmium-122",
    "Cadmium-123",
    "Cadmium-124",
    "Cadmium-125",
    "Cadmium-126",
    "Cadmium-127",
    "Cadmium-128",
    "Cadmium-129",
    "Cadmium-130",
    "Cadmium-131",
    "Cadmium-132",
    "Indium-97",
    "Indium-98",
    "Indium-99",
    "Indium-100",
    "Indium-101",
    "Indium-102",
    "Indium-103",
    "Indium-104",
    "Indium-105",
    "Indium-106",
    "Indium-107",
    "Indium-108",
    "Indium-109",
    "Indium-110",
    "Indium-111",
    "Indium-112",
    "Indium-113",
    "Indium-114",
    "Indium-115",
    "Indium-116",
    "Indium-117",
    "Indium-118",
    "Indium-119",
    "Indium-120",
    "Indium-121",
    "Indium-122",
    "Indium-123",
    "Indium-124",
    "Indium-125",
    "Indium-126",
    "Indium-127",
    "Indium-128",
    "Indium-129",
    "Indium-130",
    "Indium-131",
    "Indium-132",
    "Indium-133",
    "Indium-134",
    "Indium-135",
    "Tin-99",
    "Tin-100",
    "Tin-101",
    "Tin-102",
    "Tin-103",
    "Tin-104",
    "Tin-105",
    "Tin-106",
    "Tin-107",
    "Tin-108",
    "Tin-109",
    "Tin-110",
    "Tin-111",
    "Tin-112",
    "Tin-113",
    "Tin-114",
    "Tin-115",
    "Tin-116",
    "Tin-117",
    "Tin-118",
    "Tin-119",
    "Tin-120",
    "Tin-121",
    "Tin-122",
    "Tin-123",
    "Tin-124",
    "Tin-125",
    "Tin-126",
    "Tin-127",
    "Tin-128",
    "Tin-129",
    "Tin-130",
    "Tin-131",
    "Tin-132",
    "Tin-133",
    "Tin-134",
    "Tin-135",
    "Tin-136",
    "Tin-137",
    "Antimony-103",
    "Antimony-104",
    "Antimony-105",
    "Antimony-106",
    "Antimony-107",
    "Antimony-108",
    "Antimony-109",
    "Antimony-110",
    "Antimony-111",
    "Antimony-112",
    "Antimony-113",
    "Antimony-114",
    "Antimony-115",
    "Antimony-116",
    "Antimony-117",
    "Antimony-118",
    "Antimony-119",
    "Antimony-120",
    "Antimony-121",
    "Antimony-122",
    "Antimony-123",
    "Antimony-124",
    "Antimony-125",
    "Antimony-126",
    "Antimony-127",
    "Antimony-128",
    "Antimony-129",
    "Antimony-130",
    "Antimony-131",
    "Antimony-132",
    "Antimony-133",
    "Antimony-134",
    "Antimony-135",
    "Antimony-136",
    "Antimony-137",
    "Antimony-138",
    "Antimony-139",
    "Tellurium-105",
    "Tellurium-106",
    "Tellurium-107",
    "Tellurium-108",
    "Tellurium-109",
    "Tellurium-110",
    "Tellurium-111",
    "Tellurium-112",
    "Tellurium-113",
    "Tellurium-114",
    "Tellurium-115",
    "Tellurium-116",
    "Tellurium-117",
    "Tellurium-118",
    "Tellurium-119",
    "Tellurium-120",
    "Tellurium-121",
    "Tellurium-122",
    "Tellurium-123",
    "Tellurium-124",
    "Tellurium-125",
    "Tellurium-126",
    "Tellurium-127",
    "Tellurium-128",
    "Tellurium-129",
    "Tellurium-130",
    "Tellurium-131",
    "Tellurium-132",
    "Tellurium-133",
    "Tellurium-134",
    "Tellurium-135",
    "Tellurium-136",
    "Tellurium-137",
    "Tellurium-138",
    "Tellurium-139",
    "Tellurium-140",
    "Tellurium-141",
    "Tellurium-142",
    "Iodine-108",
    "Iodine-109",
    "Iodine-110",
    "Iodine-111",
    "Iodine-112",
    "Iodine-113",
    "Iodine-114",
    "Iodine-115",
    "Iodine-116",
    "Iodine-117",
    "Iodine-118",
    "Iodine-119",
    "Iodine-120",
    "Iodine-121",
    "Iodine-122",
    "Iodine-123",
    "Iodine-124",
    "Iodine-125",
    "Iodine-126",
    "Iodine-127",
    "Iodine-128",
    "Iodine-129",
    "Iodine-130",
    "Iodine-131",
    "Iodine-132",
    "Iodine-133",
    "Iodine-134",
    "Iodine-135",
    "Iodine-136",
    "Iodine-137",
    "Iodine-138",
    "Iodine-139",
    "Iodine-140",
    "Iodine-141",
    "Iodine-142",
    "Iodine-143",
    "Iodine-144",
    "Xenon-110",
    "Xenon-111",
    "Xenon-112",
    "Xenon-113",
    "Xenon-114",
    "Xenon-115",
    "Xenon-116",
    "Xenon-117",
    "Xenon-118",
    "Xenon-119",
    "Xenon-120",
    "Xenon-121",
    "Xenon-122",
    "Xenon-123",
    "Xenon-124",
    "Xenon-125",
    "Xenon-126",
    "Xenon-127",
    "Xenon-128",
    "Xenon-129",
    "Xenon-130",
    "Xenon-131",
    "Xenon-132",
    "Xenon-133",
    "Xenon-134",
    "Xenon-135",
    "Xenon-136",
    "Xenon-137",
    "Xenon-138",
    "Xenon-139",
    "Xenon-140",
    "Xenon-141",
    "Xenon-142",
    "Xenon-143",
    "Xenon-144",
    "Xenon-145",
    "Xenon-146",
    "Xenon-147",
    "Cesium-112",
    "Cesium-113",
    "Cesium-114",
    "Cesium-115",
    "Cesium-116",
    "Cesium-117",
    "Cesium-118",
    "Cesium-119",
    "Cesium-120",
    "Cesium-121",
    "Cesium-122",
    "Cesium-123",
    "Cesium-124",
    "Cesium-125",
    "Cesium-126",
    "Cesium-127",
    "Cesium-128",
    "Cesium-129",
    "Cesium-130",
    "Cesium-131",
    "Cesium-132",
    "Cesium-133",
    "Cesium-134",
    "Cesium-135",
    "Cesium-136",
    "Cesium-137",
    "Cesium-138",
    "Cesium-139",
    "Cesium-140",
    "Cesium-141",
    "Cesium-142",
    "Cesium-143",
    "Cesium-144",
    "Cesium-145",
    "Cesium-146",
    "Cesium-147",
    "Cesium-148",
    "Cesium-149",
    "Cesium-150",
    "Cesium-151",
    "Barium-114",
    "Barium-115",
    "Barium-116",
    "Barium-117",
    "Barium-118",
    "Barium-119",
    "Barium-120",
    "Barium-121",
    "Barium-122",
    "Barium-123",
    "Barium-124",
    "Barium-125",
    "Barium-126",
    "Barium-127",
    "Barium-128",
    "Barium-129",
    "Barium-130",
    "Barium-131",
    "Barium-132",
    "Barium-133",
    "Barium-134",
    "Barium-135",
    "Barium-136",
    "Barium-137",
    "Barium-138",
    "Barium-139",
    "Barium-140",
    "Barium-141",
    "Barium-142",
    "Barium-143",
    "Barium-144",
    "Barium-145",
    "Barium-146",
    "Barium-147",
    "Barium-148",
    "Barium-149",
    "Barium-150",
    "Barium-151",
    "Barium-152",
    "Barium-153",
    "Lanthanum-117",
    "Lanthanum-118",
    "Lanthanum-119",
    "Lanthanum-120",
    "Lanthanum-121",
    "Lanthanum-122",
    "Lanthanum-123",
    "Lanthanum-124",
    "Lanthanum-125",
    "Lanthanum-126",
    "Lanthanum-127",
    "Lanthanum-128",
    "Lanthanum-129",
    "Lanthanum-130",
    "Lanthanum-131",
    "Lanthanum-132",
    "Lanthanum-133",
    "Lanthanum-134",
    "Lanthanum-135",
    "Lanthanum-136",
    "Lanthanum-137",
    "Lanthanum-138",
    "Lanthanum-139",
    "Lanthanum-140",
    "Lanthanum-141",
    "Lanthanum-142",
    "Lanthanum-143",
    "Lanthanum-144",
    "Lanthanum-145",
    "Lanthanum-146",
    "Lanthanum-147",
    "Lanthanum-148",
    "Lanthanum-149",
    "Lanthanum-150",
    "Lanthanum-151",
    "Lanthanum-152",
    "Lanthanum-153",
    "Lanthanum-154",
    "Lanthanum-155",
    "Cerium-119",
    "Cerium-120",
    "Cerium-121",
    "Cerium-122",
    "Cerium-123",
    "Cerium-124",
    "Cerium-125",
    "Cerium-126",
    "Cerium-127",
    "Cerium-128",
    "Cerium-129",
    "Cerium-130",
    "Cerium-131",
    "Cerium-132",
    "Cerium-133",
    "Cerium-134",
    "Cerium-135",
    "Cerium-136",
    "Cerium-137",
    "Cerium-138",
    "Cerium-139",
    "Cerium-140",
    "Cerium-141",
    "Cerium-142",
    "Cerium-143",
    "Cerium-144",
    "Cerium-145",
    "Cerium-146",
    "Cerium-147",
    "Cerium-148",
    "Cerium-149",
    "Cerium-150",
    "Cerium-151",
    "Cerium-152",
    "Cerium-153",
    "Cerium-154",
    "Cerium-155",
    "Cerium-156",
    "Cerium-157",
    "Praseodymium-121",
    "Praseodymium-122",
    "Praseodymium-123",
    "Praseodymium-124",
    "Praseodymium-125",
    "Praseodymium-126",
    "Praseodymium-127",
    "Praseodymium-128",
    "Praseodymium-129",
    "Praseodymium-130",
    "Praseodymium-131",
    "Praseodymium-132",
    "Praseodymium-133",
    "Praseodymium-134",
    "Praseodymium-135",
    "Praseodymium-136",
    "Praseodymium-137",
    "Praseodymium-138",
    "Praseodymium-139",
    "Praseodymium-140",
    "Praseodymium-141",
    "Praseodymium-142",
    "Praseodymium-143",
    "Praseodymium-144",
    "Praseodymium-145",
    "Praseodymium-146",
    "Praseodymium-147",
    "Praseodymium-148",
    "Praseodymium-149",
    "Praseodymium-150",
    "Praseodymium-151",
    "Praseodymium-152",
    "Praseodymium-153",
    "Praseodymium-154",
    "Praseodymium-155",
    "Praseodymium-156",
    "Praseodymium-157",
    "Praseodymium-158",
    "Praseodymium-159",
    "Neodymium-124",
    "Neodymium-125",
    "Neodymium-126",
    "Neodymium-127",
    "Neodymium-128",
    "Neodymium-129",
    "Neodymium-130",
    "Neodymium-131",
    "Neodymium-132",
    "Neodymium-133",
    "Neodymium-134",
    "Neodymium-135",
    "Neodymium-136",
    "Neodymium-137",
    "Neodymium-138",
    "Neodymium-139",
    "Neodymium-140",
    "Neodymium-141",
    "Neodymium-142",
    "Neodymium-143",
    "Neodymium-144",
    "Neodymium-145",
    "Neodymium-146",
    "Neodymium-147",
    "Neodymium-148",
    "Neodymium-149",
    "Neodymium-150",
    "Neodymium-151",
    "Neodymium-152",
    "Neodymium-153",
    "Neodymium-154",
    "Neodymium-155",
    "Neodymium-156",
    "Neodymium-157",
    "Neodymium-158",
    "Neodymium-159",
    "Neodymium-160",
    "Neodymium-161",
    "Promethium-126",
    "Promethium-127",
    "Promethium-128",
    "Promethium-129",
    "Promethium-130",
    "Promethium-131",
    "Promethium-132",
    "Promethium-133",
    "Promethium-134",
    "Promethium-135",
    "Promethium-136",
    "Promethium-137",
    "Promethium-138",
    "Promethium-139",
    "Promethium-140",
    "Promethium-141",
    "Promethium-142",
    "Promethium-143",
    "Promethium-144",
    "Promethium-145",
    "Promethium-146",
    "Promethium-147",
    "Promethium-148",
    "Promethium-149",
    "Promethium-150",
    "Promethium-151",
    "Promethium-152",
    "Promethium-153",
    "Promethium-154",
    "Promethium-155",
    "Promethium-156",
    "Promethium-157",
    "Promethium-158",
    "Promethium-159",
    "Promethium-160",
    "Promethium-161",
    "Promethium-162",
    "Promethium-163",
    "Samarium-128",
    "Samarium-129",
    "Samarium-130",
    "Samarium-131",
    "Samarium-132",
    "Samarium-133",
    "Samarium-134",
    "Samarium-135",
    "Samarium-136",
    "Samarium-137",
    "Samarium-138",
    "Samarium-139",
    "Samarium-140",
    "Samarium-141",
    "Samarium-142",
    "Samarium-143",
    "Samarium-144",
    "Samarium-145",
    "Samarium-146",
    "Samarium-147",
    "Samarium-148",
    "Samarium-149",
    "Samarium-150",
    "Samarium-151",
    "Samarium-152",
    "Samarium-153",
    "Samarium-154",
    "Samarium-155",
    "Samarium-156",
    "Samarium-157",
    "Samarium-158",
    "Samarium-159",
    "Samarium-160",
    "Samarium-161",
    "Samarium-162",
    "Samarium-163",
    "Samarium-164",
    "Samarium-165",
    "Europium-130",
    "Europium-131",
    "Europium-132",
    "Europium-133",
    "Europium-134",
    "Europium-135",
    "Europium-136",
    "Europium-137",
    "Europium-138",
    "Europium-139",
    "Europium-140",
    "Europium-141",
    "Europium-142",
    "Europium-143",
    "Europium-144",
    "Europium-145",
    "Europium-146",
    "Europium-147",
    "Europium-148",
    "Europium-149",
    "Europium-150",
    "Europium-151",
    "Europium-152",
    "Europium-153",
    "Europium-154",
    "Europium-155",
    "Europium-156",
    "Europium-157",
    "Europium-158",
    "Europium-159",
    "Europium-160",
    "Europium-161",
    "Europium-162",
    "Europium-163",
    "Europium-164",
    "Europium-165",
    "Europium-166",
    "Europium-167",
    "Gadolinium-134",
    "Gadolinium-135",
    "Gadolinium-136",
    "Gadolinium-137",
    "Gadolinium-138",
    "Gadolinium-139",
    "Gadolinium-140",
    "Gadolinium-141",
    "Gadolinium-142",
    "Gadolinium-143",
    "Gadolinium-144",
    "Gadolinium-145",
    "Gadolinium-146",
    "Gadolinium-147",
    "Gadolinium-148",
    "Gadolinium-149",
    "Gadolinium-150",
    "Gadolinium-151",
    "Gadolinium-152",
    "Gadolinium-153",
    "Gadolinium-154",
    "Gadolinium-155",
    "Gadolinium-156",
    "Gadolinium-157",
    "Gadolinium-158",
    "Gadolinium-159",
    "Gadolinium-160",
    "Gadolinium-161",
    "Gadolinium-162",
    "Gadolinium-163",
    "Gadolinium-164",
    "Gadolinium-165",
    "Gadolinium-166",
    "Gadolinium-167",
    "Gadolinium-168",
    "Gadolinium-169",
    "Terbium-136",
    "Terbium-137",
    "Terbium-138",
    "Terbium-139",
    "Terbium-140",
    "Terbium-141",
    "Terbium-142",
    "Terbium-143",
    "Terbium-144",
    "Terbium-145",
    "Terbium-146",
    "Terbium-147",
    "Terbium-148",
    "Terbium-149",
    "Terbium-150",
    "Terbium-151",
    "Terbium-152",
    "Terbium-153",
    "Terbium-154",
    "Terbium-155",
    "Terbium-156",
    "Terbium-157",
    "Terbium-158",
    "Terbium-159",
    "Terbium-160",
    "Terbium-161",
    "Terbium-162",
    "Terbium-163",
    "Terbium-164",
    "Terbium-165",
    "Terbium-166",
    "Terbium-167",
    "Terbium-168",
    "Terbium-169",
    "Terbium-170",
    "Terbium-171",
    "Dysprosium-138",
    "Dysprosium-139",
    "Dysprosium-140",
    "Dysprosium-141",
    "Dysprosium-142",
    "Dysprosium-143",
    "Dysprosium-144",
    "Dysprosium-145",
    "Dysprosium-146",
    "Dysprosium-147",
    "Dysprosium-148",
    "Dysprosium-149",
    "Dysprosium-150",
    "Dysprosium-151",
    "Dysprosium-152",
    "Dysprosium-153",
    "Dysprosium-154",
    "Dysprosium-155",
    "Dysprosium-156",
    "Dysprosium-157",
    "Dysprosium-158",
    "Dysprosium-159",
    "Dysprosium-160",
    "Dysprosium-161",
    "Dysprosium-162",
    "Dysprosium-163",
    "Dysprosium-164",
    "Dysprosium-165",
    "Dysprosium-166",
    "Dysprosium-167",
    "Dysprosium-168",
    "Dysprosium-169",
    "Dysprosium-170",
    "Dysprosium-171",
    "Dysprosium-172",
    "Dysprosium-173",
    "Holmium-140",
    "Holmium-141",
    "Holmium-142",
    "Holmium-143",
    "Holmium-144",
    "Holmium-145",
    "Holmium-146",
    "Holmium-147",
    "Holmium-148",
    "Holmium-149",
    "Holmium-150",
    "Holmium-151",
    "Holmium-152",
    "Holmium-153",
    "Holmium-154",
    "Holmium-155",
    "Holmium-156",
    "Holmium-157",
    "Holmium-158",
    "Holmium-159",
    "Holmium-160",
    "Holmium-161",
    "Holmium-162",
    "Holmium-163",
    "Holmium-164",
    "Holmium-165",
    "Holmium-166",
    "Holmium-167",
    "Holmium-168",
    "Holmium-169",
    "Holmium-170",
    "Holmium-171",
    "Holmium-172",
    "Holmium-173",
    "Holmium-174",
    "Holmium-175",
    "Erbium-143",
    "Erbium-144",
    "Erbium-145",
    "Erbium-146",
    "Erbium-147",
    "Erbium-148",
    "Erbium-149",
    "Erbium-150",
    "Erbium-151",
    "Erbium-152",
    "Erbium-153",
    "Erbium-154",
    "Erbium-155",
    "Erbium-156",
    "Erbium-157",
    "Erbium-158",
    "Erbium-159",
    "Erbium-160",
    "Erbium-161",
    "Erbium-162",
    "Erbium-163",
    "Erbium-164",
    "Erbium-165",
    "Erbium-166",
    "Erbium-167",
    "Erbium-168",
    "Erbium-169",
    "Erbium-170",
    "Erbium-171",
    "Erbium-172",
    "Erbium-173",
    "Erbium-174",
    "Erbium-175",
    "Erbium-176",
    "Erbium-177",
    "Thulium-145",
    "Thulium-146",
    "Thulium-147",
    "Thulium-148",
    "Thulium-149",
    "Thulium-150",
    "Thulium-151",
    "Thulium-152",
    "Thulium-153",
    "Thulium-154",
    "Thulium-155",
    "Thulium-156",
    "Thulium-157",
    "Thulium-158",
    "Thulium-159",
    "Thulium-160",
    "Thulium-161",
    "Thulium-162",
    "Thulium-163",
    "Thulium-164",
    "Thulium-165",
    "Thulium-166",
    "Thulium-167",
    "Thulium-168",
    "Thulium-169",
    "Thulium-170",
    "Thulium-171",
    "Thulium-172",
    "Thulium-173",
    "Thulium-174",
    "Thulium-175",
    "Thulium-176",
    "Thulium-177",
    "Thulium-178",
    "Thulium-179",
    "Ytterbium-148",
    "Ytterbium-149",
    "Ytterbium-150",
    "Ytterbium-151",
    "Ytterbium-152",
    "Ytterbium-153",
    "Ytterbium-154",
    "Ytterbium-155",
    "Ytterbium-156",
    "Ytterbium-157",
    "Ytterbium-158",
    "Ytterbium-159",
    "Ytterbium-160",
    "Ytterbium-161",
    "Ytterbium-162",
    "Ytterbium-163",
    "Ytterbium-164",
    "Ytterbium-165",
    "Ytterbium-166",
    "Ytterbium-167",
    "Ytterbium-168",
    "Ytterbium-169",
    "Ytterbium-170",
    "Ytterbium-171",
    "Ytterbium-172",
    "Ytterbium-173",
    "Ytterbium-174",
    "Ytterbium-175",
    "Ytterbium-176",
    "Ytterbium-177",
    "Ytterbium-178",
    "Ytterbium-179",
    "Ytterbium-180",
    "Ytterbium-181",
    "Ytterbium-182",
    "Lutetium-150",
    "Lutetium-151",
    "Lutetium-152",
    "Lutetium-153",
    "Lutetium-154",
    "Lutetium-155",
    "Lutetium-156",
    "Lutetium-157",
    "Lutetium-158",
    "Lutetium-159",
    "Lutetium-160",
    "Lutetium-161",
    "Lutetium-162",
    "Lutetium-163",
    "Lutetium-164",
    "Lutetium-165",
    "Lutetium-166",
    "Lutetium-167",
    "Lutetium-168",
    "Lutetium-169",
    "Lutetium-170",
    "Lutetium-171",
    "Lutetium-172",
    "Lutetium-173",
    "Lutetium-174",
    "Lutetium-175",
    "Lutetium-176",
    "Lutetium-177",
    "Lutetium-178",
    "Lutetium-179",
    "Lutetium-180",
    "Lutetium-181",
    "Lutetium-182",
    "Lutetium-183",
    "Lutetium-184",
    "Hafnium-153",
    "Hafnium-154",
    "Hafnium-155",
    "Hafnium-156",
    "Hafnium-157",
    "Hafnium-158",
    "Hafnium-159",
    "Hafnium-160",
    "Hafnium-161",
    "Hafnium-162",
    "Hafnium-163",
    "Hafnium-164",
    "Hafnium-165",
    "Hafnium-166",
    "Hafnium-167",
    "Hafnium-168",
    "Hafnium-169",
    "Hafnium-170",
    "Hafnium-171",
    "Hafnium-172",
    "Hafnium-173",
    "Hafnium-174",
    "Hafnium-175",
    "Hafnium-176",
    "Hafnium-177",
    "Hafnium-178",
    "Hafnium-179",
    "Hafnium-180",
    "Hafnium-181",
    "Hafnium-182",
    "Hafnium-183",
    "Hafnium-184",
    "Hafnium-185",
    "Hafnium-186",
    "Hafnium-187",
    "Hafnium-188",
    "Tantalum-155",
    "Tantalum-156",
    "Tantalum-157",
    "Tantalum-158",
    "Tantalum-159",
    "Tantalum-160",
    "Tantalum-161",
    "Tantalum-162",
    "Tantalum-163",
    "Tantalum-164",
    "Tantalum-165",
    "Tantalum-166",
    "Tantalum-167",
    "Tantalum-168",
    "Tantalum-169",
    "Tantalum-170",
    "Tantalum-171",
    "Tantalum-172",
    "Tantalum-173",
    "Tantalum-174",
    "Tantalum-175",
    "Tantalum-176",
    "Tantalum-177",
    "Tantalum-178",
    "Tantalum-179",
    "Tantalum-180",
    "Tantalum-181",
    "Tantalum-182",
    "Tantalum-183",
    "Tantalum-184",
    "Tantalum-185",
    "Tantalum-186",
    "Tantalum-187",
    "Tantalum-188",
    "Tantalum-189",
    "Tantalum-190",
    "Tungsten-158",
    "Tungsten-159",
    "Tungsten-160",
    "Tungsten-161",
    "Tungsten-162",
    "Tungsten-163",
    "Tungsten-164",
    "Tungsten-165",
    "Tungsten-166",
    "Tungsten-167",
    "Tungsten-168",
    "Tungsten-169",
    "Tungsten-170",
    "Tungsten-171",
    "Tungsten-172",
    "Tungsten-173",
    "Tungsten-174",
    "Tungsten-175",
    "Tungsten-176",
    "Tungsten-177",
    "Tungsten-178",
    "Tungsten-179",
    "Tungsten-180",
    "Tungsten-181",
    "Tungsten-182",
    "Tungsten-183",
    "Tungsten-184",
    "Tungsten-185",
    "Tungsten-186",
    "Tungsten-187",
    "Tungsten-188",
    "Tungsten-189",
    "Tungsten-190",
    "Tungsten-191",
    "Tungsten-192",
    "Rhenium-160",
    "Rhenium-161",
    "Rhenium-162",
    "Rhenium-163",
    "Rhenium-164",
    "Rhenium-165",
    "Rhenium-166",
    "Rhenium-167",
    "Rhenium-168",
    "Rhenium-169",
    "Rhenium-170",
    "Rhenium-171",
    "Rhenium-172",
    "Rhenium-173",
    "Rhenium-174",
    "Rhenium-175",
    "Rhenium-176",
    "Rhenium-177",
    "Rhenium-178",
    "Rhenium-179",
    "Rhenium-180",
    "Rhenium-181",
    "Rhenium-182",
    "Rhenium-183",
    "Rhenium-184",
    "Rhenium-185",
    "Rhenium-186",
    "Rhenium-187",
    "Rhenium-188",
    "Rhenium-189",
    "Rhenium-190",
    "Rhenium-191",
    "Rhenium-192",
    "Rhenium-193",
    "Rhenium-194",
    "Osmium-162",
    "Osmium-163",
    "Osmium-164",
    "Osmium-165",
    "Osmium-166",
    "Osmium-167",
    "Osmium-168",
    "Osmium-169",
    "Osmium-170",
    "Osmium-171",
    "Osmium-172",
    "Osmium-173",
    "Osmium-174",
    "Osmium-175",
    "Osmium-176",
    "Osmium-177",
    "Osmium-178",
    "Osmium-179",
    "Osmium-180",
    "Osmium-181",
    "Osmium-182",
    "Osmium-183",
    "Osmium-184",
    "Osmium-185",
    "Osmium-186",
    "Osmium-187",
    "Osmium-188",
    "Osmium-189",
    "Osmium-190",
    "Osmium-191",
    "Osmium-192",
    "Osmium-193",
    "Osmium-194",
    "Osmium-195",
    "Osmium-196",
    "Iridium-164",
    "Iridium-165",
    "Iridium-166",
    "Iridium-167",
    "Iridium-168",
    "Iridium-169",
    "Iridium-170",
    "Iridium-171",
    "Iridium-172",
    "Iridium-173",
    "Iridium-174",
    "Iridium-175",
    "Iridium-176",
    "Iridium-177",
    "Iridium-178",
    "Iridium-179",
    "Iridium-180",
    "Iridium-181",
    "Iridium-182",
    "Iridium-183",
    "Iridium-184",
    "Iridium-185",
    "Iridium-186",
    "Iridium-187",
    "Iridium-188",
    "Iridium-189",
    "Iridium-190",
    "Iridium-191",
    "Iridium-192",
    "Iridium-193",
    "Iridium-194",
    "Iridium-195",
    "Iridium-196",
    "Iridium-197",
    "Iridium-198",
    "Iridium-199",
    "Platinum-166",
    "Platinum-167",
    "Platinum-168",
    "Platinum-169",
    "Platinum-170",
    "Platinum-171",
    "Platinum-172",
    "Platinum-173",
    "Platinum-174",
    "Platinum-175",
    "Platinum-176",
    "Platinum-177",
    "Platinum-178",
    "Platinum-179",
    "Platinum-180",
    "Platinum-181",
    "Platinum-182",
    "Platinum-183",
    "Platinum-184",
    "Platinum-185",
    "Platinum-186",
    "Platinum-187",
    "Platinum-188",
    "Platinum-189",
    "Platinum-190",
    "Platinum-191",
    "Platinum-192",
    "Platinum-193",
    "Platinum-194",
    "Platinum-195",
    "Platinum-196",
    "Platinum-197",
    "Platinum-198",
    "Platinum-199",
    "Platinum-200",
    "Platinum-201",
    "Platinum-202",
    "Gold-169",
    "Gold-170",
    "Gold-171",
    "Gold-172",
    "Gold-173",
    "Gold-174",
    "Gold-175",
    "Gold-176",
    "Gold-177",
    "Gold-178",
    "Gold-179",
    "Gold-180",
    "Gold-181",
    "Gold-182",
    "Gold-183",
    "Gold-184",
    "Gold-185",
    "Gold-186",
    "Gold-187",
    "Gold-188",
    "Gold-189",
    "Gold-190",
    "Gold-191",
    "Gold-192",
    "Gold-193",
    "Gold-194",
    "Gold-195",
    "Gold-196",
    "Gold-197",
    "Gold-198",
    "Gold-199",
    "Gold-200",
    "Gold-201",
    "Gold-202",
    "Gold-203",
    "Gold-204",
    "Gold-205",
    "Mercury-171",
    "Mercury-172",
    "Mercury-173",
    "Mercury-174",
    "Mercury-175",
    "Mercury-176",
    "Mercury-177",
    "Mercury-178",
    "Mercury-179",
    "Mercury-180",
    "Mercury-181",
    "Mercury-182",
    "Mercury-183",
    "Mercury-184",
    "Mercury-185",
    "Mercury-186",
    "Mercury-187",
    "Mercury-188",
    "Mercury-189",
    "Mercury-190",
    "Mercury-191",
    "Mercury-192",
    "Mercury-193",
    "Mercury-194",
    "Mercury-195",
    "Mercury-196",
    "Mercury-197",
    "Mercury-198",
    "Mercury-199",
    "Mercury-200",
    "Mercury-201",
    "Mercury-202",
    "Mercury-203",
    "Mercury-204",
    "Mercury-205",
    "Mercury-206",
    "Mercury-207",
    "Mercury-208",
    "Mercury-209",
    "Mercury-210",
    "Thallium-176",
    "Thallium-177",
    "Thallium-178",
    "Thallium-179",
    "Thallium-180",
    "Thallium-181",
    "Thallium-182",
    "Thallium-183",
    "Thallium-184",
    "Thallium-185",
    "Thallium-186",
    "Thallium-187",
    "Thallium-188",
    "Thallium-189",
    "Thallium-190",
    "Thallium-191",
    "Thallium-192",
    "Thallium-193",
    "Thallium-194",
    "Thallium-195",
    "Thallium-196",
    "Thallium-197",
    "Thallium-198",
    "Thallium-199",
    "Thallium-200",
    "Thallium-201",
    "Thallium-202",
    "Thallium-203",
    "Thallium-204",
    "Thallium-205",
    "Thallium-206",
    "Thallium-207",
    "Thallium-208",
    "Thallium-209",
    "Thallium-210",
    "Thallium-211",
    "Thallium-212",
    "Lead-178",
    "Lead-179",
    "Lead-180",
    "Lead-181",
    "Lead-182",
    "Lead-183",
    "Lead-184",
    "Lead-185",
    "Lead-186",
    "Lead-187",
    "Lead-188",
    "Lead-189",
    "Lead-190",
    "Lead-191",
    "Lead-192",
    "Lead-193",
    "Lead-194",
    "Lead-195",
    "Lead-196",
    "Lead-197",
    "Lead-198",
    "Lead-199",
    "Lead-200",
    "Lead-201",
    "Lead-202",
    "Lead-203",
    "Lead-204",
    "Lead-205",
    "Lead-206",
    "Lead-207",
    "Lead-208",
    "Lead-209",
    "Lead-210",
    "Lead-211",
    "Lead-212",
    "Lead-213",
    "Lead-214",
    "Lead-215",
    "Bismuth-184",
    "Bismuth-185",
    "Bismuth-186",
    "Bismuth-187",
    "Bismuth-188",
    "Bismuth-189",
    "Bismuth-190",
    "Bismuth-191",
    "Bismuth-192",
    "Bismuth-193",
    "Bismuth-194",
    "Bismuth-195",
    "Bismuth-196",
    "Bismuth-197",
    "Bismuth-198",
    "Bismuth-199",
    "Bismuth-200",
    "Bismuth-201",
    "Bismuth-202",
    "Bismuth-203",
    "Bismuth-204",
    "Bismuth-205",
    "Bismuth-206",
    "Bismuth-207",
    "Bismuth-208",
    "Bismuth-209",
    "Bismuth-210",
    "Bismuth-211",
    "Bismuth-212",
    "Bismuth-213",
    "Bismuth-214",
    "Bismuth-215",
    "Bismuth-216",
    "Bismuth-217",
    "Bismuth-218",
    "Bismuth-219",
    "Polonium-188",
    "Polonium-189",
    "Polonium-190",
    "Polonium-191",
    "Polonium-192",
    "Polonium-193",
    "Polonium-194",
    "Polonium-195",
    "Polonium-196",
    "Polonium-197",
    "Polonium-198",
    "Polonium-199",
    "Polonium-200",
    "Polonium-201",
    "Polonium-202",
    "Polonium-203",
    "Polonium-204",
    "Polonium-205",
    "Polonium-206",
    "Polonium-207",
    "Polonium-208",
    "Polonium-209",
    "Polonium-210",
    "Polonium-211",
    "Polonium-212",
    "Polonium-213",
    "Polonium-214",
    "Polonium-215",
    "Polonium-216",
    "Polonium-217",
    "Polonium-218",
    "Polonium-219",
    "Polonium-220",
    "Astatine-193",
    "Astatine-194",
    "Astatine-195",
    "Astatine-196",
    "Astatine-197",
    "Astatine-198",
    "Astatine-199",
    "Astatine-200",
    "Astatine-201",
    "Astatine-202",
    "Astatine-203",
    "Astatine-204",
    "Astatine-205",
    "Astatine-206",
    "Astatine-207",
    "Astatine-208",
    "Astatine-209",
    "Astatine-210",
    "Astatine-211",
    "Astatine-212",
    "Astatine-213",
    "Astatine-214",
    "Astatine-215",
    "Astatine-216",
    "Astatine-217",
    "Astatine-218",
    "Astatine-219",
    "Astatine-220",
    "Astatine-221",
    "Astatine-222",
    "Astatine-223",
    "Radon-195",
    "Radon-196",
    "Radon-197",
    "Radon-198",
    "Radon-199",
    "Radon-200",
    "Radon-201",
    "Radon-202",
    "Radon-203",
    "Radon-204",
    "Radon-205",
    "Radon-206",
    "Radon-207",
    "Radon-208",
    "Radon-209",
    "Radon-210",
    "Radon-211",
    "Radon-212",
    "Radon-213",
    "Radon-214",
    "Radon-215",
    "Radon-216",
    "Radon-217",
    "Radon-218",
    "Radon-219",
    "Radon-220",
    "Radon-221",
    "Radon-222",
    "Radon-223",
    "Radon-224",
    "Radon-225",
    "Radon-226",
    "Radon-227",
    "Radon-228",
    "Francium-199",
    "Francium-200",
    "Francium-201",
    "Francium-202",
    "Francium-203",
    "Francium-204",
    "Francium-205",
    "Francium-206",
    "Francium-207",
    "Francium-208",
    "Francium-209",
    "Francium-210",
    "Francium-211",
    "Francium-212",
    "Francium-213",
    "Francium-214",
    "Francium-215",
    "Francium-216",
    "Francium-217",
    "Francium-218",
    "Francium-219",
    "Francium-220",
    "Francium-221",
    "Francium-222",
    "Francium-223",
    "Francium-224",
    "Francium-225",
    "Francium-226",
    "Francium-227",
    "Francium-228",
    "Francium-229",
    "Francium-230",
    "Francium-231",
    "Francium-232",
    "Radium-202",
    "Radium-203",
    "Radium-204",
    "Radium-205",
    "Radium-206",
    "Radium-207",
    "Radium-208",
    "Radium-209",
    "Radium-210",
    "Radium-211",
    "Radium-212",
    "Radium-213",
    "Radium-214",
    "Radium-215",
    "Radium-216",
    "Radium-217",
    "Radium-218",
    "Radium-219",
    "Radium-220",
    "Radium-221",
    "Radium-222",
    "Radium-223",
    "Radium-224",
    "Radium-225",
    "Radium-226",
    "Radium-227",
    "Radium-228",
    "Radium-229",
    "Radium-230",
    "Radium-231",
    "Radium-232",
    "Radium-233",
    "Radium-234",
    "Actinium-206",
    "Actinium-207",
    "Actinium-208",
    "Actinium-209",
    "Actinium-210",
    "Actinium-211",
    "Actinium-212",
    "Actinium-213",
    "Actinium-214",
    "Actinium-215",
    "Actinium-216",
    "Actinium-217",
    "Actinium-218",
    "Actinium-219",
    "Actinium-220",
    "Actinium-221",
    "Actinium-222",
    "Actinium-223",
    "Actinium-224",
    "Actinium-225",
    "Actinium-226",
    "Actinium-227",
    "Actinium-228",
    "Actinium-229",
    "Actinium-230",
    "Actinium-231",
    "Actinium-232",
    "Actinium-233",
    "Actinium-234",
    "Actinium-235",
    "Actinium-236",
    "Thorium-209",
    "Thorium-210",
    "Thorium-211",
    "Thorium-212",
    "Thorium-213",
    "Thorium-214",
    "Thorium-215",
    "Thorium-216",
    "Thorium-217",
    "Thorium-218",
    "Thorium-219",
    "Thorium-220",
    "Thorium-221",
    "Thorium-222",
    "Thorium-223",
    "Thorium-224",
    "Thorium-225",
    "Thorium-226",
    "Thorium-227",
    "Thorium-228",
    "Thorium-229",
    "Thorium-230",
    "Thorium-231",
    "Thorium-232",
    "Thorium-233",
    "Thorium-234",
    "Thorium-235",
    "Thorium-236",
    "Thorium-237",
    "Thorium-238",
    "Protactinium-212",
    "Protactinium-213",
    "Protactinium-214",
    "Protactinium-215",
    "Protactinium-216",
    "Protactinium-217",
    "Protactinium-218",
    "Protactinium-219",
    "Protactinium-220",
    "Protactinium-221",
    "Protactinium-222",
    "Protactinium-223",
    "Protactinium-224",
    "Protactinium-225",
    "Protactinium-226",
    "Protactinium-227",
    "Protactinium-228",
    "Protactinium-229",
    "Protactinium-230",
    "Protactinium-231",
    "Protactinium-232",
    "Protactinium-233",
    "Protactinium-234",
    "Protactinium-235",
    "Protactinium-236",
    "Protactinium-237",
    "Protactinium-238",
    "Protactinium-239",
    "Protactinium-240",
    "Uranium-217",
    "Uranium-218",
    "Uranium-219",
    "Uranium-220",
    "Uranium-221",
    "Uranium-222",
    "Uranium-223",
    "Uranium-224",
    "Uranium-225",
    "Uranium-226",
    "Uranium-227",
    "Uranium-228",
    "Uranium-229",
    "Uranium-230",
    "Uranium-231",
    "Uranium-232",
    "Uranium-233",
    "Uranium-234",
    "Uranium-235",
    "Uranium-236",
    "Uranium-237",
    "Uranium-238",
    "Uranium-239",
    "Uranium-240",
    "Uranium-241",
    "Uranium-242U",
    "Neptunium-225",
    "Neptunium-226",
    "Neptunium-227",
    "Neptunium-228",
    "Neptunium-229",
    "Neptunium-230",
    "Neptunium-231",
    "Neptunium-232",
    "Neptunium-233",
    "Neptunium-234",
    "Neptunium-235",
    "Neptunium-236",
    "Neptunium-237",
    "Neptunium-238",
    "Neptunium-239",
    "Neptunium-240",
    "Neptunium-241",
    "Neptunium-242",
    "Neptunium-243",
    "Neptunium-244",
    "Plutonium-228",
    "Plutonium-229",
    "Plutonium-230",
    "Plutonium-231",
    "Plutonium-232",
    "Plutonium-233",
    "Plutonium-234",
    "Plutonium-235",
    "Plutonium-236",
    "Plutonium-237",
    "Plutonium-238",
    "Plutonium-239",
    "Plutonium-240",
    "Plutonium-241",
    "Plutonium-242",
    "Plutonium-243",
    "Plutonium-244",
    "Plutonium-245",
    "Plutonium-246",
    "Plutonium-247",
    "Americium-231",
    "Americium-232",
    "Americium-233",
    "Americium-234",
    "Americium-235",
    "Americium-236",
    "Americium-237",
    "Americium-238",
    "Americium-239",
    "Americium-240",
    "Americium-241",
    "Americium-242",
    "Americium-243",
    "Americium-244",
    "Americium-245",
    "Americium-246",
    "Americium-247",
    "Americium-248",
    "Americium-249",
    "Curium-233",
    "Curium-234",
    "Curium-235",
    "Curium-236",
    "Curium-237",
    "Curium-238",
    "Curium-239",
    "Curium-240",
    "Curium-241",
    "Curium-242",
    "Curium-243",
    "Curium-244",
    "Curium-245",
    "Curium-246",
    "Curium-247",
    "Curium-248",
    "Curium-249",
    "Curium-250",
    "Curium-251",
    "Curium-252",
    "Berkelium-235",
    "Berkelium-236",
    "Berkelium-237",
    "Berkelium-238",
    "Berkelium-239",
    "Berkelium-240",
    "Berkelium-241",
    "Berkelium-242",
    "Berkelium-243",
    "Berkelium-244",
    "Berkelium-245",
    "Berkelium-246",
    "Berkelium-247",
    "Berkelium-248",
    "Berkelium-249",
    "Berkelium-250",
    "Berkelium-251",
    "Berkelium-252",
    "Berkelium-253",
    "Berkelium-254",
    "Californium-237",
    "Californium-238",
    "Californium-239",
    "Californium-240",
    "Californium-241",
    "Californium-242",
    "Californium-243",
    "Californium-244",
    "Californium-245",
    "Californium-246",
    "Californium-247",
    "Californium-248",
    "Californium-249",
    "Californium-250",
    "Californium-251",
    "Californium-252",
    "Californium-253",
    "Californium-254",
    "Californium-255",
    "Californium-256",
    "Einsteinium-240",
    "Einsteinium-241",
    "Einsteinium-242",
    "Einsteinium-243",
    "Einsteinium-244",
    "Einsteinium-245",
    "Einsteinium-246",
    "Einsteinium-247",
    "Einsteinium-248",
    "Einsteinium-249",
    "Einsteinium-250",
    "Einsteinium-251",
    "Einsteinium-252",
    "Einsteinium-253",
    "Einsteinium-254",
    "Einsteinium-255",
    "Einsteinium-256",
    "Einsteinium-257",
    "Einsteinium-258",
    "Fermium-242",
    "Fermium-243",
    "Fermium-244",
    "Fermium-245",
    "Fermium-246",
    "Fermium-247",
    "Fermium-248",
    "Fermium-249",
    "Fermium-250",
    "Fermium-251",
    "Fermium-252",
    "Fermium-253",
    "Fermium-254",
    "Fermium-255",
    "Fermium-256",
    "Fermium-257",
    "Fermium-258",
    "Fermium-259",
    "Fermium-260",
    "Mendelevium-245",
    "Mendelevium-246",
    "Mendelevium-247",
    "Mendelevium-248",
    "Mendelevium-249",
    "Mendelevium-250",
    "Mendelevium-251",
    "Mendelevium-252",
    "Mendelevium-253",
    "Mendelevium-254",
    "Mendelevium-255",
    "Mendelevium-256",
    "Mendelevium-257",
    "Mendelevium-258",
    "Mendelevium-259",
    "Mendelevium-260",
    "Mendelevium-261",
    "Mendelevium-262",
    "Nobelium-248",
    "Nobelium-249",
    "Nobelium-250",
    "Nobelium-251",
    "Nobelium-252",
    "Nobelium-253",
    "Nobelium-254",
    "Nobelium-255",
    "Nobelium-256",
    "Nobelium-257",
    "Nobelium-258",
    "Nobelium-259",
    "Nobelium-260",
    "Nobelium-261",
    "Nobelium-262",
    "Nobelium-263",
    "Nobelium-264",
    "Lawrencium-251",
    "Lawrencium-252",
    "Lawrencium-253",
    "Lawrencium-254",
    "Lawrencium-255",
    "Lawrencium-256",
    "Lawrencium-257",
    "Lawrencium-258",
    "Lawrencium-259",
    "Lawrencium-260",
    "Lawrencium-261",
    "Lawrencium-262",
    "Lawrencium-263",
    "Lawrencium-264",
    "Lawrencium-265",
    "Lawrencium-266",
    "Rutherfordium-253",
    "Rutherfordium-254",
    "Rutherfordium-255",
    "Rutherfordium-256",
    "Rutherfordium-257",
    "Rutherfordium-258",
    "Rutherfordium-259",
    "Rutherfordium-260",
    "Rutherfordium-261",
    "Rutherfordium-262",
    "Rutherfordium-263",
    "Rutherfordium-264",
    "Rutherfordium-265",
    "Rutherfordium-266",
    "Rutherfordium-267",
    "Rutherfordium-268",
    "Dubnium-255",
    "Dubnium-256",
    "Dubnium-257",
    "Dubnium-258",
    "Dubnium-259",
    "Dubnium-260",
    "Dubnium-261",
    "Dubnium-262",
    "Dubnium-263",
    "Dubnium-264",
    "Dubnium-265",
    "Dubnium-266",
    "Dubnium-267",
    "Dubnium-268",
    "Dubnium-269",
    "Dubnium-270",
    "Seaborgium-258",
    "Seaborgium-259",
    "Seaborgium-260",
    "Seaborgium-261",
    "Seaborgium-262",
    "Seaborgium-263",
    "Seaborgium-264",
    "Seaborgium-265",
    "Seaborgium-266",
    "Seaborgium-267",
    "Seaborgium-268",
    "Seaborgium-269",
    "Seaborgium-270",
    "Seaborgium-271",
    "Seaborgium-272",
    "Seaborgium-273",
    "Bohrium-260",
    "Bohrium-261",
    "Bohrium-262",
    "Bohrium-263",
    "Bohrium-264",
    "Bohrium-265",
    "Bohrium-266",
    "Bohrium-267",
    "Bohrium-268",
    "Bohrium-269",
    "Bohrium-270",
    "Bohrium-271",
    "Bohrium-272",
    "Bohrium-273",
    "Bohrium-274",
    "Bohrium-275",
    "Hassium-263",
    "Hassium-264",
    "Hassium-265",
    "Hassium-266",
    "Hassium-267",
    "Hassium-268",
    "Hassium-269",
    "Hassium-270",
    "Hassium-271",
    "Hassium-272",
    "Hassium-273",
    "Hassium-274",
    "Hassium-275",
    "Hassium-276",
    "Hassium-277",
    "Meitnerium-265",
    "Meitnerium-266",
    "Meitnerium-267",
    "Meitnerium-268",
    "Meitnerium-269",
    "Meitnerium-270",
    "Meitnerium-271",
    "Meitnerium-272",
    "Meitnerium-273",
    "Meitnerium-274",
    "Meitnerium-275",
    "Meitnerium-276",
    "Meitnerium-277",
    "Meitnerium-278",
    "Meitnerium-279",
    "Darmstadtium-267",
    "Darmstadtium-268",
    "Darmstadtium-269",
    "Darmstadtium-270",
    "Darmstadtium-271",
    "Darmstadtium-272",
    "Darmstadtium-273",
    "Darmstadtium-274",
    "Darmstadtium-275",
    "Darmstadtium-276",
    "Darmstadtium-277",
    "Darmstadtium-278",
    "Darmstadtium-279",
    "Darmstadtium-280",
    "Darmstadtium-281",
    "Roentgenium-272",
    "Roentgenium-273",
    "Roentgenium-274",
    "Roentgenium-275",
    "Roentgenium-276",
    "Roentgenium-277",
    "Roentgenium-278",
    "Roentgenium-279",
    "Roentgenium-280",
    "Roentgenium-281",
    "Roentgenium-282",
    "Roentgenium-283",
    "Copernicium-277",
    "Copernicium-278",
    "Copernicium-279",
    "Copernicium-280",
    "Copernicium-281",
    "Copernicium-282",
    "Copernicium-283",
    "Copernicium-284",
    "Copernicium-285",
    "Nihonium-283",
    "Nihonium-284",
    "Nihonium-285",
    "Nihonium-286",
    "Nihonium-287",
    "Flerovium-285",
    "Flerovium-286",
    "Flerovium-287",
    "Flerovium-288",
    "Flerovium-289",
    "Moscovium-287",
    "Moscovium-288",
    "Moscovium-289",
    "Moscovium-290",
    "Moscovium-291",
    "Livermorium-289",
    "Livermorium-290",
    "Livermorium-291",
    "Livermorium-292",
    "Tennessine-291",
    "Tennessine-292",
    "Tennessine-293",
    "Tennessine-294",
    "Oganesson-293"
  ]
}
